%YAML 1.1
%TAG !u! tag:unity3d.com,2011:
--- !u!114 &11400000
MonoBehaviour:
  m_ObjectHideFlags: 0
  m_CorrespondingSourceObject: {fileID: 0}
  m_PrefabInstance: {fileID: 0}
  m_PrefabAsset: {fileID: 0}
  m_GameObject: {fileID: 0}
  m_Enabled: 1
  m_EditorHideFlags: 0
  m_Script: {fileID: 11500000, guid: ae7ee55086024fdaa293c72b17787af3, type: 3}
  m_Name: icon_3
  m_EditorClassIdentifier: 
  textures:
  - {fileID: 2800000, guid: 526402904d12654448e643c1392c6ca1, type: 3}
  - {fileID: 2800000, guid: f305cf62104fd8249b3dc145fc36ae36, type: 3}
  - {fileID: 2800000, guid: d07cdb2efae0080489a5d68649dcb08c, type: 3}
  - {fileID: 2800000, guid: de7d5e3da74f46149a28e725298b6714, type: 3}
  - {fileID: 2800000, guid: bae8fee4975bbc045bea25b690044723, type: 3}
