%YAML 1.1
%TAG !u! tag:unity3d.com,2011:
--- !u!114 &11400000
MonoBehaviour:
  m_ObjectHideFlags: 0
  m_CorrespondingSourceObject: {fileID: 0}
  m_PrefabInstance: {fileID: 0}
  m_PrefabAsset: {fileID: 0}
  m_GameObject: {fileID: 0}
  m_Enabled: 1
  m_EditorHideFlags: 0
  m_Script: {fileID: 11500000, guid: ae7ee55086024fdaa293c72b17787af3, type: 3}
  m_Name: icon_5
  m_EditorClassIdentifier: 
  textures:
  - {fileID: 2800000, guid: 00d66984ca7f0c84fa706742d1823e73, type: 3}
  - {fileID: 2800000, guid: 735d8b1dc47be5d43920d4bfa159be5a, type: 3}
  - {fileID: 2800000, guid: aff7e3e4cc8fd924cae6d01ea2cde166, type: 3}
  - {fileID: 2800000, guid: 234b6bf4abc8e1449bd4d36ec567de8f, type: 3}
  - {fileID: 2800000, guid: 709c8261ea50b6a44bdfb2d954e7ff88, type: 3}
